%YAML 1.1
%TAG !u! tag:unity3d.com,2011:
--- !u!1045 &1
EditorBuildSettings:
  m_ObjectHideFlags: 0
  serializedVersion: 2
  m_Scenes:
  - enabled: 1
    path: Assets/Scenes/Recipe7_14/Recipe7_14.unity
    guid: 6df4bdb913d5e8b43983e8aab3358112
  m_configObjects: {}
